{
  "PFR-100M": {
    "channel": 1,
    "vMax": 250,
    "iMax": 2,
    "pMax": 100,
    "cmdID": "PFR100"
  },
  "PFR-100L": {
    "channel": 1,
    "vMax": 50,
    "iMax": 10,
    "pMax": 100,
    "cmdID": "PFR100"
  }
}